memory profiling: sample.interval=20000
:2288952:236631587:132003592:143:"read.mat" "profileSparseCholeskySolver" "rbind" "doTryCatch" "tryCatchOne" "tryCatchList" "tryCatch" "try" 
:2288952:236631587:132003592:0:"read.mat" "profileSparseCholeskySolver" "rbind" "doTryCatch" "tryCatchOne" "tryCatchList" "tryCatch" "try" 
:2288952:236631587:132003592:0:"read.mat" "profileSparseCholeskySolver" "rbind" "doTryCatch" "tryCatchOne" "tryCatchList" "tryCatch" "try" 
:2288952:236631587:132003592:0:"read.mat" "profileSparseCholeskySolver" "rbind" "doTryCatch" "tryCatchOne" "tryCatchList" "tryCatch" "try" 
:2288952:236631587:132003592:0:"read.mat" "profileSparseCholeskySolver" "rbind" "doTryCatch" "tryCatchOne" "tryCatchList" "tryCatch" "try" 
:2288952:236631587:132003592:0:"read.mat" "profileSparseCholeskySolver" "rbind" "doTryCatch" "tryCatchOne" "tryCatchList" "tryCatch" "try" 
:2288952:236631587:132003592:0:"read.mat" "profileSparseCholeskySolver" "rbind" "doTryCatch" "tryCatchOne" "tryCatchList" "tryCatch" "try" 
:2288952:236631587:132003592:0:"read.mat" "profileSparseCholeskySolver" "rbind" "doTryCatch" "tryCatchOne" "tryCatchList" "tryCatch" "try" 
:2288952:236631587:132003592:0:"read.mat" "profileSparseCholeskySolver" "rbind" "doTryCatch" "tryCatchOne" "tryCatchList" "tryCatch" "try" 
:2288952:236631587:132003592:0:"read.mat" "profileSparseCholeskySolver" "rbind" "doTryCatch" "tryCatchOne" "tryCatchList" "tryCatch" "try" 
:2288952:236631587:132003592:0:"read.mat" "profileSparseCholeskySolver" "rbind" "doTryCatch" "tryCatchOne" "tryCatchList" "tryCatch" "try" 
:2288954:236631587:132003704:0:"read.mat" "profileSparseCholeskySolver" "rbind" "doTryCatch" "tryCatchOne" "tryCatchList" "tryCatch" "try" 
:2288954:236631587:132003704:0:"read.mat" "profileSparseCholeskySolver" "rbind" "doTryCatch" "tryCatchOne" "tryCatchList" "tryCatch" "try" 
:2288954:236631587:132003704:0:"read.mat" "profileSparseCholeskySolver" "rbind" "doTryCatch" "tryCatchOne" "tryCatchList" "tryCatch" "try" 
:2288954:236631587:132003704:0:"read.mat" "profileSparseCholeskySolver" "rbind" "doTryCatch" "tryCatchOne" "tryCatchList" "tryCatch" "try" 
:2288954:236631587:132003704:0:"read.mat" "profileSparseCholeskySolver" "rbind" "doTryCatch" "tryCatchOne" "tryCatchList" "tryCatch" "try" 
:2288954:236631587:132003704:0:"read.mat" "profileSparseCholeskySolver" "rbind" "doTryCatch" "tryCatchOne" "tryCatchList" "tryCatch" "try" 
:2288954:236631587:132003704:0:"read.mat" "profileSparseCholeskySolver" "rbind" "doTryCatch" "tryCatchOne" "tryCatchList" "tryCatch" "try" 
:2288954:236631587:132003704:0:"read.mat" "profileSparseCholeskySolver" "rbind" "doTryCatch" "tryCatchOne" "tryCatchList" "tryCatch" "try" 
:2288954:236631587:132003704:0:"read.mat" "profileSparseCholeskySolver" "rbind" "doTryCatch" "tryCatchOne" "tryCatchList" "tryCatch" "try" 
:2288954:236631587:132003704:0:"read.mat" "profileSparseCholeskySolver" "rbind" "doTryCatch" "tryCatchOne" "tryCatchList" "tryCatch" "try" 
:2288954:236631587:132003704:0:"read.mat" "profileSparseCholeskySolver" "rbind" "doTryCatch" "tryCatchOne" "tryCatchList" "tryCatch" "try" 
:2288954:236631587:132003704:0:"read.mat" "profileSparseCholeskySolver" "rbind" "doTryCatch" "tryCatchOne" "tryCatchList" "tryCatch" "try" 
:2288954:236631587:132003704:0:"read.mat" "profileSparseCholeskySolver" "rbind" "doTryCatch" "tryCatchOne" "tryCatchList" "tryCatch" "try" 
:2288954:236631587:132003704:0:"read.mat" "profileSparseCholeskySolver" "rbind" "doTryCatch" "tryCatchOne" "tryCatchList" "tryCatch" "try" 
:2288954:236631587:132003704:0:"read.mat" "profileSparseCholeskySolver" "rbind" "doTryCatch" "tryCatchOne" "tryCatchList" "tryCatch" "try" 
:2288954:236631587:132003704:0:"read.mat" "profileSparseCholeskySolver" "rbind" "doTryCatch" "tryCatchOne" "tryCatchList" "tryCatch" "try" 
:2288954:236631587:132003704:0:"read.mat" "profileSparseCholeskySolver" "rbind" "doTryCatch" "tryCatchOne" "tryCatchList" "tryCatch" "try" 
:2288954:236631587:132003704:0:"read.mat" "profileSparseCholeskySolver" "rbind" "doTryCatch" "tryCatchOne" "tryCatchList" "tryCatch" "try" 
:2288954:236631587:132003704:0:"read.mat" "profileSparseCholeskySolver" "rbind" "doTryCatch" "tryCatchOne" "tryCatchList" "tryCatch" "try" 
:2288954:236631587:132003704:0:"read.mat" "profileSparseCholeskySolver" "rbind" "doTryCatch" "tryCatchOne" "tryCatchList" "tryCatch" "try" 
:2288954:236631587:132003704:0:"read.mat" "profileSparseCholeskySolver" "rbind" "doTryCatch" "tryCatchOne" "tryCatchList" "tryCatch" "try" 
:2288954:236631587:132003704:0:"read.mat" "profileSparseCholeskySolver" "rbind" "doTryCatch" "tryCatchOne" "tryCatchList" "tryCatch" "try" 
:2288954:236631587:132003704:0:"read.mat" "profileSparseCholeskySolver" "rbind" "doTryCatch" "tryCatchOne" "tryCatchList" "tryCatch" "try" 
:2288954:236631587:132003704:0:"read.mat" "profileSparseCholeskySolver" "rbind" "doTryCatch" "tryCatchOne" "tryCatchList" "tryCatch" "try" 
:2288954:236631587:132003704:0:"read.mat" "profileSparseCholeskySolver" "rbind" "doTryCatch" "tryCatchOne" "tryCatchList" "tryCatch" "try" 
:2288954:236631587:132003704:0:"read.mat" "profileSparseCholeskySolver" "rbind" "doTryCatch" "tryCatchOne" "tryCatchList" "tryCatch" "try" 
:2288954:236631587:132003704:0:"read.mat" "profileSparseCholeskySolver" "rbind" "doTryCatch" "tryCatchOne" "tryCatchList" "tryCatch" "try" 
:2288954:236631587:132003704:0:"read.mat" "profileSparseCholeskySolver" "rbind" "doTryCatch" "tryCatchOne" "tryCatchList" "tryCatch" "try" 
:2288954:236631587:132003704:0:"read.mat" "profileSparseCholeskySolver" "rbind" "doTryCatch" "tryCatchOne" "tryCatchList" "tryCatch" "try" 
:2288954:236631587:132003704:0:"read.mat" "profileSparseCholeskySolver" "rbind" "doTryCatch" "tryCatchOne" "tryCatchList" "tryCatch" "try" 
:2288954:236631587:132003704:0:"read.mat" "profileSparseCholeskySolver" "rbind" "doTryCatch" "tryCatchOne" "tryCatchList" "tryCatch" "try" 
:2288954:236631587:132003704:0:"read.mat" "profileSparseCholeskySolver" "rbind" "doTryCatch" "tryCatchOne" "tryCatchList" "tryCatch" "try" 
:2288954:236631587:132003704:0:"read.mat" "profileSparseCholeskySolver" "rbind" "doTryCatch" "tryCatchOne" "tryCatchList" "tryCatch" "try" 
:2288954:236631587:132003704:0:"read.mat" "profileSparseCholeskySolver" "rbind" "doTryCatch" "tryCatchOne" "tryCatchList" "tryCatch" "try" 
:2288954:236631587:132003704:0:"read.mat" "profileSparseCholeskySolver" "rbind" "doTryCatch" "tryCatchOne" "tryCatchList" "tryCatch" "try" 
:2288954:236631587:132003704:0:"read.mat" "profileSparseCholeskySolver" "rbind" "doTryCatch" "tryCatchOne" "tryCatchList" "tryCatch" "try" 
:2288954:236631587:132003704:0:"read.mat" "profileSparseCholeskySolver" "rbind" "doTryCatch" "tryCatchOne" "tryCatchList" "tryCatch" "try" 
:2288954:236631587:132003704:0:"read.mat" "profileSparseCholeskySolver" "rbind" "doTryCatch" "tryCatchOne" "tryCatchList" "tryCatch" "try" 
:2288954:236631587:132003704:0:"read.mat" "profileSparseCholeskySolver" "rbind" "doTryCatch" "tryCatchOne" "tryCatchList" "tryCatch" "try" 
:2288954:236631587:132003704:0:"read.mat" "profileSparseCholeskySolver" "rbind" "doTryCatch" "tryCatchOne" "tryCatchList" "tryCatch" "try" 
:2288954:236631587:132003704:0:"read.mat" "profileSparseCholeskySolver" "rbind" "doTryCatch" "tryCatchOne" "tryCatchList" "tryCatch" "try" 
:2288954:236631587:132003704:0:"read.mat" "profileSparseCholeskySolver" "rbind" "doTryCatch" "tryCatchOne" "tryCatchList" "tryCatch" "try" 
:2288954:236631587:132003704:0:"read.mat" "profileSparseCholeskySolver" "rbind" "doTryCatch" "tryCatchOne" "tryCatchList" "tryCatch" "try" 
:2288954:236631587:132003704:0:"read.mat" "profileSparseCholeskySolver" "rbind" "doTryCatch" "tryCatchOne" "tryCatchList" "tryCatch" "try" 
:2288954:236631587:132003704:0:"read.mat" "profileSparseCholeskySolver" "rbind" "doTryCatch" "tryCatchOne" "tryCatchList" "tryCatch" "try" 
:2288954:236631587:132003704:0:"read.mat" "profileSparseCholeskySolver" "rbind" "doTryCatch" "tryCatchOne" "tryCatchList" "tryCatch" "try" 
:2288954:236631587:132003704:0:"read.mat" "profileSparseCholeskySolver" "rbind" "doTryCatch" "tryCatchOne" "tryCatchList" "tryCatch" "try" 
:2288954:236631587:132003704:0:"read.mat" "profileSparseCholeskySolver" "rbind" "doTryCatch" "tryCatchOne" "tryCatchList" "tryCatch" "try" 
:2288954:236631587:132003704:0:"read.mat" "profileSparseCholeskySolver" "rbind" "doTryCatch" "tryCatchOne" "tryCatchList" "tryCatch" "try" 
:2288954:236631587:132003704:0:"read.mat" "profileSparseCholeskySolver" "rbind" "doTryCatch" "tryCatchOne" "tryCatchList" "tryCatch" "try" 
:2288954:236631587:132003704:0:"read.mat" "profileSparseCholeskySolver" "rbind" "doTryCatch" "tryCatchOne" "tryCatchList" "tryCatch" "try" 
:2288954:236631587:132003704:0:"read.mat" "profileSparseCholeskySolver" "rbind" "doTryCatch" "tryCatchOne" "tryCatchList" "tryCatch" "try" 
:2288954:236631587:132003704:0:"read.mat" "profileSparseCholeskySolver" "rbind" "doTryCatch" "tryCatchOne" "tryCatchList" "tryCatch" "try" 
:2288954:236631587:132003704:0:"read.mat" "profileSparseCholeskySolver" "rbind" "doTryCatch" "tryCatchOne" "tryCatchList" "tryCatch" "try" 
:2288954:236631587:132003704:0:"read.mat" "profileSparseCholeskySolver" "rbind" "doTryCatch" "tryCatchOne" "tryCatchList" "tryCatch" "try" 
:2288954:236631587:132003704:0:"read.mat" "profileSparseCholeskySolver" "rbind" "doTryCatch" "tryCatchOne" "tryCatchList" "tryCatch" "try" 
:2288954:236631587:132003704:0:"read.mat" "profileSparseCholeskySolver" "rbind" "doTryCatch" "tryCatchOne" "tryCatchList" "tryCatch" "try" 
:2288954:236631587:132003704:0:"read.mat" "profileSparseCholeskySolver" "rbind" "doTryCatch" "tryCatchOne" "tryCatchList" "tryCatch" "try" 
:2288954:236631587:132003704:0:"read.mat" "profileSparseCholeskySolver" "rbind" "doTryCatch" "tryCatchOne" "tryCatchList" "tryCatch" "try" 
:2288954:236631587:132003704:0:"read.mat" "profileSparseCholeskySolver" "rbind" "doTryCatch" "tryCatchOne" "tryCatchList" "tryCatch" "try" 
:2288954:236631587:132003704:0:"read.mat" "profileSparseCholeskySolver" "rbind" "doTryCatch" "tryCatchOne" "tryCatchList" "tryCatch" "try" 
:2288954:236631587:132003704:0:"read.mat" "profileSparseCholeskySolver" "rbind" "doTryCatch" "tryCatchOne" "tryCatchList" "tryCatch" "try" 
:2288954:236631587:132003704:0:"read.mat" "profileSparseCholeskySolver" "rbind" "doTryCatch" "tryCatchOne" "tryCatchList" "tryCatch" "try" 
:2288954:236631587:132003704:0:"read.mat" "profileSparseCholeskySolver" "rbind" "doTryCatch" "tryCatchOne" "tryCatchList" "tryCatch" "try" 
:2288954:236631587:132003704:0:"read.mat" "profileSparseCholeskySolver" "rbind" "doTryCatch" "tryCatchOne" "tryCatchList" "tryCatch" "try" 
:2288954:236631587:132003704:0:"read.mat" "profileSparseCholeskySolver" "rbind" "doTryCatch" "tryCatchOne" "tryCatchList" "tryCatch" "try" 
:2288954:236631587:132003704:0:"read.mat" "profileSparseCholeskySolver" "rbind" "doTryCatch" "tryCatchOne" "tryCatchList" "tryCatch" "try" 
:2288954:236631587:132003704:0:"read.mat" "profileSparseCholeskySolver" "rbind" "doTryCatch" "tryCatchOne" "tryCatchList" "tryCatch" "try" 
:2288954:236631587:132003704:0:"read.mat" "profileSparseCholeskySolver" "rbind" "doTryCatch" "tryCatchOne" "tryCatchList" "tryCatch" "try" 
:2288954:236631587:132003704:0:"read.mat" "profileSparseCholeskySolver" "rbind" "doTryCatch" "tryCatchOne" "tryCatchList" "tryCatch" "try" 
:2288954:236631587:132003704:0:"read.mat" "profileSparseCholeskySolver" "rbind" "doTryCatch" "tryCatchOne" "tryCatchList" "tryCatch" "try" 
:2288954:236631587:132003704:0:"read.mat" "profileSparseCholeskySolver" "rbind" "doTryCatch" "tryCatchOne" "tryCatchList" "tryCatch" "try" 
:2288954:236631587:132003704:0:"read.mat" "profileSparseCholeskySolver" "rbind" "doTryCatch" "tryCatchOne" "tryCatchList" "tryCatch" "try" 
:2288954:236631587:132003704:0:"read.mat" "profileSparseCholeskySolver" "rbind" "doTryCatch" "tryCatchOne" "tryCatchList" "tryCatch" "try" 
:2288954:236631587:132003704:0:"read.mat" "profileSparseCholeskySolver" "rbind" "doTryCatch" "tryCatchOne" "tryCatchList" "tryCatch" "try" 
:2288954:236631587:132003704:0:"read.mat" "profileSparseCholeskySolver" "rbind" "doTryCatch" "tryCatchOne" "tryCatchList" "tryCatch" "try" 
:2288954:236631587:132003704:0:"read.mat" "profileSparseCholeskySolver" "rbind" "doTryCatch" "tryCatchOne" "tryCatchList" "tryCatch" "try" 
:2288954:236631587:132003704:0:"read.mat" "profileSparseCholeskySolver" "rbind" "doTryCatch" "tryCatchOne" "tryCatchList" "tryCatch" "try" 
:2288954:236631587:132003704:0:"read.mat" "profileSparseCholeskySolver" "rbind" "doTryCatch" "tryCatchOne" "tryCatchList" "tryCatch" "try" 
:2288954:236631587:132003704:0:"read.mat" "profileSparseCholeskySolver" "rbind" "doTryCatch" "tryCatchOne" "tryCatchList" "tryCatch" "try" 
:2288954:236631587:132003704:0:"read.mat" "profileSparseCholeskySolver" "rbind" "doTryCatch" "tryCatchOne" "tryCatchList" "tryCatch" "try" 
:2288954:236631587:132003704:0:"read.mat" "profileSparseCholeskySolver" "rbind" "doTryCatch" "tryCatchOne" "tryCatchList" "tryCatch" "try" 
:2288954:236631587:132003704:0:"read.mat" "profileSparseCholeskySolver" "rbind" "doTryCatch" "tryCatchOne" "tryCatchList" "tryCatch" "try" 
:2288954:236631587:132003704:0:"read.mat" "profileSparseCholeskySolver" "rbind" "doTryCatch" "tryCatchOne" "tryCatchList" "tryCatch" "try" 
:2288954:236631587:132003704:0:"read.mat" "profileSparseCholeskySolver" "rbind" "doTryCatch" "tryCatchOne" "tryCatchList" "tryCatch" "try" 
:2288954:236631587:132003704:0:"read.mat" "profileSparseCholeskySolver" "rbind" "doTryCatch" "tryCatchOne" "tryCatchList" "tryCatch" "try" 
:2288954:236631587:132003704:0:"read.mat" "profileSparseCholeskySolver" "rbind" "doTryCatch" "tryCatchOne" "tryCatchList" "tryCatch" "try" 
:2288954:236631587:132003704:0:"read.mat" "profileSparseCholeskySolver" "rbind" "doTryCatch" "tryCatchOne" "tryCatchList" "tryCatch" "try" 
:2288954:236631587:132003704:0:"read.mat" "profileSparseCholeskySolver" "rbind" "doTryCatch" "tryCatchOne" "tryCatchList" "tryCatch" "try" 
:2288954:236631587:132003704:0:"read.mat" "profileSparseCholeskySolver" "rbind" "doTryCatch" "tryCatchOne" "tryCatchList" "tryCatch" "try" 
:2288954:236631587:132003704:0:"read.mat" "profileSparseCholeskySolver" "rbind" "doTryCatch" "tryCatchOne" "tryCatchList" "tryCatch" "try" 
:2288954:236631587:132003704:0:"read.mat" "profileSparseCholeskySolver" "rbind" "doTryCatch" "tryCatchOne" "tryCatchList" "tryCatch" "try" 
:2288954:236631587:132003704:0:"read.mat" "profileSparseCholeskySolver" "rbind" "doTryCatch" "tryCatchOne" "tryCatchList" "tryCatch" "try" 
:2288954:236631587:132003704:0:"read.mat" "profileSparseCholeskySolver" "rbind" "doTryCatch" "tryCatchOne" "tryCatchList" "tryCatch" "try" 
:2288954:236631587:132003704:0:"read.mat" "profileSparseCholeskySolver" "rbind" "doTryCatch" "tryCatchOne" "tryCatchList" "tryCatch" "try" 
:2288954:236631587:132003704:0:"read.mat" "profileSparseCholeskySolver" "rbind" "doTryCatch" "tryCatchOne" "tryCatchList" "tryCatch" "try" 
:2288954:236631587:132003704:0:"read.mat" "profileSparseCholeskySolver" "rbind" "doTryCatch" "tryCatchOne" "tryCatchList" "tryCatch" "try" 
:2288954:236631587:132003704:0:"read.mat" "profileSparseCholeskySolver" "rbind" "doTryCatch" "tryCatchOne" "tryCatchList" "tryCatch" "try" 
:2288954:236631587:132003704:0:"read.mat" "profileSparseCholeskySolver" "rbind" "doTryCatch" "tryCatchOne" "tryCatchList" "tryCatch" "try" 
:2288954:236631587:132003704:0:"read.mat" "profileSparseCholeskySolver" "rbind" "doTryCatch" "tryCatchOne" "tryCatchList" "tryCatch" "try" 
:2288954:236631587:132003704:0:"read.mat" "profileSparseCholeskySolver" "rbind" "doTryCatch" "tryCatchOne" "tryCatchList" "tryCatch" "try" 
:2288989:248915566:132006784:1:"read.mat" "profileSparseCholeskySolver" "rbind" "doTryCatch" "tryCatchOne" "tryCatchList" "tryCatch" "try" 
:2289503:258428471:132224512:48:"asMethod" "as" "profileSparseCholeskySolver" "rbind" "doTryCatch" "tryCatchOne" "tryCatchList" "tryCatch" "try" 
:2290231:260806723:132511960:50:".T.2.C" "%*%" "%*%" "%*%" "%*%" "%*%" "%*%" "profileSparseCholeskySolver" "rbind" "doTryCatch" "tryCatchOne" "tryCatchList" "tryCatch" "try" 
:2290231:260806723:132511960:0:".T.2.C" "%*%" "%*%" "%*%" "%*%" "%*%" "%*%" "profileSparseCholeskySolver" "rbind" "doTryCatch" "tryCatchOne" "tryCatchList" "tryCatch" "try" 
:2290251:263184940:132521144:2:".Call" "%*%" "%*%" "%*%" "%*%" "%*%" "%*%" "%*%" "%*%" "%*%" "profileSparseCholeskySolver" "rbind" "doTryCatch" "tryCatchOne" "tryCatchList" "tryCatch" "try" 
:2290251:263184940:132521144:0:".Call" "%*%" "%*%" "%*%" "%*%" "%*%" "%*%" "%*%" "%*%" "%*%" "profileSparseCholeskySolver" "rbind" "doTryCatch" "tryCatchOne" "tryCatchList" "tryCatch" "try" 
:2290251:263184940:132521144:0:".Call" "%*%" "%*%" "%*%" "%*%" "%*%" "%*%" "%*%" "%*%" "%*%" "profileSparseCholeskySolver" "rbind" "doTryCatch" "tryCatchOne" "tryCatchList" "tryCatch" "try" 
:2290251:263184940:132521144:0:".Call" "%*%" "%*%" "%*%" "%*%" "%*%" "%*%" "%*%" "%*%" "%*%" "profileSparseCholeskySolver" "rbind" "doTryCatch" "tryCatchOne" "tryCatchList" "tryCatch" "try" 
